Projeto2-Rega_Automatizada(melhorias)!/simulation/qsim/rega_automatizada-melhorias.msim.vcd
$comment
	File created using the following command:
		vcd file rega_automatizada-melhorias.msim.vcd -direction
$end
$date
	Wed May 08 20:27:24 2024
$end
$version
	ModelSim Version 2020.1
$end
$timescale
	1ps
$end

$scope module _60_seconds_timer_vlg_vec_tst $end
$var reg 1 ! clk $end
$var reg 1 " reset $end
$var wire 1 # seconds_counter [5] $end
$var wire 1 $ seconds_counter [4] $end
$var wire 1 % seconds_counter [3] $end
$var wire 1 & seconds_counter [2] $end
$var wire 1 ' seconds_counter [1] $end
$var wire 1 ( seconds_counter [0] $end

$scope module i1 $end
$var wire 1 ) gnd $end
$var wire 1 * vcc $end
$var wire 1 + unknown $end
$var tri1 1 , devclrn $end
$var tri1 1 - devpor $end
$var tri1 1 . devoe $end
$var wire 1 / Add0~25 $end
$var wire 1 0 clk~combout $end
$var wire 1 1 reset~combout $end
$var wire 1 2 Add1~125_combout $end
$var wire 1 3 Add1~110_combout $end
$var wire 1 4 Add1~112 $end
$var wire 1 5 Add1~112COUT1_133 $end
$var wire 1 6 Add1~105_combout $end
$var wire 1 7 Add1~107 $end
$var wire 1 8 Add1~107COUT1_134 $end
$var wire 1 9 Add1~100_combout $end
$var wire 1 : Equal0~6 $end
$var wire 1 ; Add1~127 $end
$var wire 1 < Add1~127COUT1_131 $end
$var wire 1 = Add1~120_combout $end
$var wire 1 > Add1~102 $end
$var wire 1 ? Add1~102COUT1_135 $end
$var wire 1 @ Add1~95_combout $end
$var wire 1 A Add1~90_combout $end
$var wire 1 B Add1~92 $end
$var wire 1 C Add1~92COUT1_137 $end
$var wire 1 D Add1~85_combout $end
$var wire 1 E Equal0~5 $end
$var wire 1 F Add1~122 $end
$var wire 1 G Add1~122COUT1_132 $end
$var wire 1 H Add1~115_combout $end
$var wire 1 I Add1~117 $end
$var wire 1 J Add1~97 $end
$var wire 1 K Add1~97COUT1_136 $end
$var wire 1 L Add1~80_combout $end
$var wire 1 M Add1~82 $end
$var wire 1 N Add1~60_combout $end
$var wire 1 O Add1~87 $end
$var wire 1 P Add1~87COUT1_138 $end
$var wire 1 Q Add1~75_combout $end
$var wire 1 R Add1~77 $end
$var wire 1 S Add1~77COUT1_139 $end
$var wire 1 T Add1~70_combout $end
$var wire 1 U Add1~72 $end
$var wire 1 V Add1~72COUT1_140 $end
$var wire 1 W Add1~65_combout $end
$var wire 1 X Add1~67 $end
$var wire 1 Y Add1~62 $end
$var wire 1 Z Add1~62COUT1_141 $end
$var wire 1 [ Add1~50_combout $end
$var wire 1 \ Add1~52 $end
$var wire 1 ] Add1~52COUT1_142 $end
$var wire 1 ^ Add1~45_combout $end
$var wire 1 _ Add1~47 $end
$var wire 1 ` Add1~47COUT1_143 $end
$var wire 1 a Add1~57 $end
$var wire 1 b Add1~57COUT1_144 $end
$var wire 1 c Add1~40_combout $end
$var wire 1 d Add1~55_combout $end
$var wire 1 e Equal0~3 $end
$var wire 1 f Equal0~4 $end
$var wire 1 g Add1~42 $end
$var wire 1 h Add1~35_combout $end
$var wire 1 i Add1~37 $end
$var wire 1 j Add1~37COUT1_145 $end
$var wire 1 k Add1~30_combout $end
$var wire 1 l Add1~32 $end
$var wire 1 m Add1~32COUT1_146 $end
$var wire 1 n Add1~25_combout $end
$var wire 1 o Add1~27 $end
$var wire 1 p Add1~27COUT1_147 $end
$var wire 1 q Add1~20_combout $end
$var wire 1 r Add1~22 $end
$var wire 1 s Add1~22COUT1_148 $end
$var wire 1 t Add1~15_combout $end
$var wire 1 u Add1~17 $end
$var wire 1 v Add1~10_combout $end
$var wire 1 w Add1~12 $end
$var wire 1 x Add1~12COUT1_149 $end
$var wire 1 y Add1~7 $end
$var wire 1 z Add1~7COUT1_150 $end
$var wire 1 { Add1~0_combout $end
$var wire 1 | Add1~5_combout $end
$var wire 1 } Equal0~0 $end
$var wire 1 ~ Equal0~1 $end
$var wire 1 !! Equal0~2_combout $end
$var wire 1 "! Equal0~7 $end
$var wire 1 #! Equal0~8_combout $end
$var wire 1 $! seconds_counter[0]~reg0_regout $end
$var wire 1 %! Add0~27_cout0 $end
$var wire 1 &! Add0~27COUT1_31 $end
$var wire 1 '! Add0~0_combout $end
$var wire 1 (! seconds_counter[1]~reg0_regout $end
$var wire 1 )! Add0~2 $end
$var wire 1 *! Add0~2COUT1_32 $end
$var wire 1 +! Add0~7 $end
$var wire 1 ,! Add0~7COUT1_33 $end
$var wire 1 -! Add0~10_combout $end
$var wire 1 .! seconds_counter[3]~reg0_regout $end
$var wire 1 /! Add0~12 $end
$var wire 1 0! Add0~15_combout $end
$var wire 1 1! seconds_counter[4]~reg0_regout $end
$var wire 1 2! Add0~17 $end
$var wire 1 3! Add0~17COUT1_34 $end
$var wire 1 4! Add0~20_combout $end
$var wire 1 5! seconds_counter[5]~reg0_regout $end
$var wire 1 6! seconds_counter~0_combout $end
$var wire 1 7! Add0~5_combout $end
$var wire 1 8! seconds_counter[2]~reg0_regout $end
$var wire 1 9! clk_counter [25] $end
$var wire 1 :! clk_counter [24] $end
$var wire 1 ;! clk_counter [23] $end
$var wire 1 <! clk_counter [22] $end
$var wire 1 =! clk_counter [21] $end
$var wire 1 >! clk_counter [20] $end
$var wire 1 ?! clk_counter [19] $end
$var wire 1 @! clk_counter [18] $end
$var wire 1 A! clk_counter [17] $end
$var wire 1 B! clk_counter [16] $end
$var wire 1 C! clk_counter [15] $end
$var wire 1 D! clk_counter [14] $end
$var wire 1 E! clk_counter [13] $end
$var wire 1 F! clk_counter [12] $end
$var wire 1 G! clk_counter [11] $end
$var wire 1 H! clk_counter [10] $end
$var wire 1 I! clk_counter [9] $end
$var wire 1 J! clk_counter [8] $end
$var wire 1 K! clk_counter [7] $end
$var wire 1 L! clk_counter [6] $end
$var wire 1 M! clk_counter [5] $end
$var wire 1 N! clk_counter [4] $end
$var wire 1 O! clk_counter [3] $end
$var wire 1 P! clk_counter [2] $end
$var wire 1 Q! clk_counter [1] $end
$var wire 1 R! clk_counter [0] $end
$upscope $end
$upscope $end
$enddefinitions $end
#0
$dumpvars
0!
0"
1(
1'
0&
1%
1$
1#
0)
1*
x+
1,
1-
1.
1/
00
01
12
03
14
15
06
07
08
09
1:
0;
0<
0=
1>
1?
0@
0A
0B
0C
0D
0E
1F
1G
0H
0I
0J
0K
0L
1M
0N
1O
1P
0Q
0R
0S
0T
1U
1V
0W
0X
1Y
1Z
0[
0\
0]
0^
1_
1`
0a
0b
0c
0d
0e
0f
1g
0h
0i
0j
0k
1l
1m
0n
0o
0p
0q
1r
1s
0t
0u
0v
1w
1x
0y
0z
0{
0|
0}
0~
0!!
0"!
0#!
0$!
1%!
1&!
1'!
0(!
0)!
0*!
1+!
1,!
1-!
0.!
0/!
10!
01!
12!
13!
14!
05!
16!
07!
08!
0R!
0Q!
0P!
0O!
0N!
0M!
0L!
0K!
0J!
0I!
0H!
0G!
0F!
0E!
0D!
0C!
0B!
0A!
0@!
0?!
0>!
0=!
0<!
0;!
0:!
09!
$end
#10000
1!
10
1R!
1<
1;
02
1=
#20000
0!
00
#30000
1!
10
1Q!
0R!
0G
0F
0=
0<
0;
12
1H
1G
1F
1=
0H
#40000
0!
00
#50000
1!
10
1R!
1<
1;
02
0G
0F
0=
1H
#60000
0!
00
#70000
1!
10
1P!
0Q!
0R!
1I
0H
0:
1G
1F
1=
0<
0;
12
13
0I
1H
0=
03
#80000
0!
00
#90000
1!
10
1R!
1<
1;
02
1=
#100000
0!
00
#110000
1!
10
1Q!
0R!
0G
0F
0=
0<
0;
12
1I
0H
1G
1F
1=
13
0I
1H
03
#120000
0!
00
#130000
1!
10
1R!
1<
1;
02
0G
0F
0=
1I
0H
13
#140000
0!
00
#150000
1!
10
0P!
0Q!
1O!
0R!
0I
1H
1G
1F
1=
05
03
0<
0;
12
13
0H
0=
#160000
0!
00
#170000
1!
10
1R!
1<
1;
02
1=
#180000
0!
00
#190000
1!
10
1Q!
0R!
0G
0F
0=
0<
0;
12
1H
1G
1F
1=
0H
#200000
0!
00
#210000
1!
10
1R!
1<
1;
02
0G
0F
0=
1H
#220000
0!
00
#230000
1!
10
1P!
0Q!
0R!
1I
0H
1G
1F
1=
0<
0;
12
16
03
0I
1H
0=
06
13
#240000
0!
00
#250000
1!
10
1R!
1<
1;
02
1=
#260000
0!
00
#270000
1!
10
1Q!
0R!
0G
0F
0=
0<
0;
12
1I
0H
1G
1F
1=
16
03
0I
1H
06
13
#280000
0!
00
#290000
1!
10
1R!
1<
1;
02
0G
0F
0=
1I
0H
16
03
#300000
0!
00
#310000
1!
10
0P!
0Q!
1N!
0O!
0R!
0I
1H
1G
1F
1=
18
06
15
13
0<
0;
12
08
16
03
0H
0=
#320000
0!
00
#330000
1!
10
1R!
1<
1;
02
1=
#340000
0!
00
#350000
1!
10
1Q!
0R!
0G
0F
0=
0<
0;
12
1H
1G
1F
1=
0H
#360000
0!
00
#370000
1!
10
1R!
1<
1;
02
0G
0F
0=
1H
#380000
0!
00
#390000
1!
10
1P!
0Q!
0R!
1I
0H
1G
1F
1=
0<
0;
12
13
0I
1H
0=
03
#400000
0!
00
#410000
1!
10
1R!
1<
1;
02
1=
#420000
0!
00
#430000
1!
10
1Q!
0R!
0G
0F
0=
0<
0;
12
1I
0H
1G
1F
1=
13
0I
1H
03
#440000
0!
00
#450000
1!
10
1R!
1<
1;
02
0G
0F
0=
1I
0H
13
#460000
0!
00
#470000
1!
10
0P!
0Q!
1O!
0R!
0I
1H
1G
1F
1=
05
03
0<
0;
12
18
13
0H
0=
#480000
0!
00
#490000
1!
10
1R!
1<
1;
02
1=
#500000
0!
00
#510000
1!
10
1Q!
0R!
0G
0F
0=
0<
0;
12
1H
1G
1F
1=
0H
#520000
0!
00
#530000
1!
10
1R!
1<
1;
02
0G
0F
0=
1H
#540000
0!
00
#550000
1!
10
1P!
0Q!
0R!
1I
0H
1G
1F
1=
0<
0;
12
19
06
03
0I
1H
0=
09
16
13
#560000
0!
00
#570000
1!
10
1R!
1<
1;
02
1=
#580000
0!
00
#590000
1!
10
1Q!
0R!
0G
0F
0=
0<
0;
12
1I
0H
1G
1F
1=
19
06
03
0I
1H
09
16
13
#600000
0!
00
#610000
1!
10
1R!
1<
1;
02
0G
0F
0=
1I
0H
19
06
03
#620000
0!
00
#630000
1!
10
0P!
0Q!
1M!
0N!
0O!
0R!
0I
1H
1G
1F
1=
0?
09
08
16
15
13
0<
0;
12
1?
19
06
03
0H
0=
#640000
0!
00
#650000
1!
10
1R!
1<
1;
02
1=
#660000
0!
00
#670000
1!
10
1Q!
0R!
0G
0F
0=
0<
0;
12
1H
1G
1F
1=
0H
#680000
0!
00
#690000
1!
10
1R!
1<
1;
02
0G
0F
0=
1H
#700000
0!
00
#710000
1!
10
1P!
0Q!
0R!
1I
0H
1G
1F
1=
0<
0;
12
13
0I
1H
0=
03
#720000
0!
00
#730000
1!
10
1R!
1<
1;
02
1=
#740000
0!
00
#750000
1!
10
1Q!
0R!
0G
0F
0=
0<
0;
12
1I
0H
1G
1F
1=
13
0I
1H
03
#760000
0!
00
#770000
1!
10
1R!
1<
1;
02
0G
0F
0=
1I
0H
13
#780000
0!
00
#790000
1!
10
0P!
0Q!
1O!
0R!
0I
1H
1G
1F
1=
05
03
0<
0;
12
13
0H
0=
#800000
0!
00
#810000
1!
10
1R!
1<
1;
02
1=
#820000
0!
00
#830000
1!
10
1Q!
0R!
0G
0F
0=
0<
0;
12
1H
1G
1F
1=
0H
#840000
0!
00
#850000
1!
10
1R!
1<
1;
02
0G
0F
0=
1H
#860000
0!
00
#870000
1!
10
1P!
0Q!
0R!
1I
0H
1G
1F
1=
0<
0;
12
16
03
0I
1H
0=
06
13
#880000
0!
00
#890000
1!
10
1R!
1<
1;
02
1=
#900000
0!
00
#910000
1!
10
1Q!
0R!
0G
0F
0=
0<
0;
12
1I
0H
1G
1F
1=
16
03
0I
1H
06
13
#920000
0!
00
#930000
1!
10
1R!
1<
1;
02
0G
0F
0=
1I
0H
16
03
#940000
0!
00
#950000
1!
10
0P!
0Q!
1N!
0O!
0R!
0I
1H
1G
1F
1=
18
06
15
13
0<
0;
12
0?
08
16
03
0H
0=
1?
#960000
0!
00
#970000
1!
10
1R!
1<
1;
02
1=
#980000
0!
00
#990000
1!
10
1Q!
0R!
0G
0F
0=
0<
0;
12
1H
1G
1F
1=
0H
#1000000
0!
00
#1010000
1!
10
1R!
1<
1;
02
0G
0F
0=
1H
#1020000
0!
00
#1030000
1!
10
1P!
0Q!
0R!
1I
0H
1G
1F
1=
0<
0;
12
13
0I
1H
0=
03
#1040000
0!
00
#1050000
1!
10
1R!
1<
1;
02
1=
#1060000
0!
00
#1070000
1!
10
1Q!
0R!
0G
0F
0=
0<
0;
12
1I
0H
1G
1F
1=
13
0I
1H
03
#1080000
0!
00
#1090000
1!
10
1R!
1<
1;
02
0G
0F
0=
1I
0H
13
#1100000
0!
00
#1110000
1!
10
0P!
0Q!
1O!
0R!
0I
1H
1G
1F
1=
05
03
0<
0;
12
18
13
0H
0=
0?
#1120000
0!
00
#1130000
1!
10
1R!
1<
1;
02
1=
#1140000
0!
00
#1150000
1!
10
1Q!
0R!
0G
0F
0=
0<
0;
12
1H
1G
1F
1=
0H
#1160000
0!
00
#1170000
1!
10
1R!
1<
1;
02
0G
0F
0=
1H
#1180000
0!
00
#1190000
1!
10
1P!
0Q!
0R!
1I
0H
1G
1F
1=
0<
0;
12
1@
09
06
03
0I
1H
0=
0@
19
16
13
#1200000
0!
00
#1210000
1!
10
1R!
1<
1;
02
1=
#1220000
0!
00
#1230000
1!
10
1Q!
0R!
0G
0F
0=
0<
0;
12
1I
0H
1G
1F
1=
1@
09
06
03
0I
1H
0@
19
16
13
#1240000
0!
00
#1250000
1!
10
1R!
1<
1;
02
0G
0F
0=
1I
0H
1@
09
06
03
#1260000
0!
00
#1270000
1!
10
0P!
0Q!
1L!
0M!
0N!
0O!
0R!
0I
1H
1:
1G
1F
1=
1K
0@
1?
19
08
16
15
13
0<
0;
12
0K
1@
09
06
03
0H
0=
#1280000
0!
00
#1290000
1!
10
1R!
1<
1;
02
1=
#1300000
0!
00
#1310000
1!
10
1Q!
0R!
0G
0F
0=
0<
0;
12
1H
1G
1F
1=
0H
#1320000
0!
00
#1330000
1!
10
1R!
1<
1;
02
0G
0F
0=
1H
#1340000
0!
00
#1350000
1!
10
1P!
0Q!
0R!
1I
0H
0:
1G
1F
1=
0<
0;
12
13
0I
1H
0=
03
#1360000
0!
00
#1370000
1!
10
1R!
1<
1;
02
1=
#1380000
0!
00
#1390000
1!
10
1Q!
0R!
0G
0F
0=
0<
0;
12
1I
0H
1G
1F
1=
13
0I
1H
03
#1400000
0!
00
#1410000
1!
10
1R!
1<
1;
02
0G
0F
0=
1I
0H
13
#1420000
0!
00
#1430000
1!
10
0P!
0Q!
1O!
0R!
0I
1H
1G
1F
1=
05
03
0<
0;
12
13
0H
0=
#1440000
0!
00
#1450000
1!
10
1R!
1<
1;
02
1=
#1460000
0!
00
#1470000
1!
10
1Q!
0R!
0G
0F
0=
0<
0;
12
1H
1G
1F
1=
0H
#1480000
0!
00
#1490000
1!
10
1R!
1<
1;
02
0G
0F
0=
1H
#1500000
0!
00
#1510000
1!
10
1P!
0Q!
0R!
1I
0H
1G
1F
1=
0<
0;
12
16
03
0I
1H
0=
06
13
#1520000
0!
00
#1530000
1!
10
1R!
1<
1;
02
1=
#1540000
0!
00
#1550000
1!
10
1Q!
0R!
0G
0F
0=
0<
0;
12
1I
0H
1G
1F
1=
16
03
0I
1H
06
13
#1560000
0!
00
#1570000
1!
10
1R!
1<
1;
02
0G
0F
0=
1I
0H
16
03
#1580000
0!
00
#1590000
1!
10
0P!
0Q!
1N!
0O!
0R!
0I
1H
1G
1F
1=
18
06
15
13
0<
0;
12
08
16
03
0H
0=
#1600000
0!
00
#1610000
1!
10
1R!
1<
1;
02
1=
#1620000
0!
00
#1630000
1!
10
1Q!
0R!
0G
0F
0=
0<
0;
12
1H
1G
1F
1=
0H
#1640000
0!
00
#1650000
1!
10
1R!
1<
1;
02
0G
0F
0=
1H
#1660000
0!
00
#1670000
1!
10
1P!
0Q!
0R!
1I
0H
1G
1F
1=
0<
0;
12
13
0I
1H
0=
03
#1680000
0!
00
#1690000
1!
10
1R!
1<
1;
02
1=
#1700000
0!
00
#1710000
1!
10
1Q!
0R!
0G
0F
0=
0<
0;
12
1I
0H
1G
1F
1=
13
0I
1H
03
#1720000
0!
00
#1730000
1!
10
1R!
1<
1;
02
0G
0F
0=
1I
0H
13
#1740000
0!
00
#1750000
1!
10
0P!
0Q!
1O!
0R!
0I
1H
1G
1F
1=
05
03
0<
0;
12
18
13
0H
0=
#1760000
0!
00
#1770000
1!
10
1R!
1<
1;
02
1=
#1780000
0!
00
#1790000
1!
10
1Q!
0R!
0G
0F
0=
0<
0;
12
1H
1G
1F
1=
0H
#1800000
0!
00
#1810000
1!
10
1R!
1<
1;
02
0G
0F
0=
1H
#1820000
0!
00
#1830000
1!
10
1P!
0Q!
0R!
1I
0H
1G
1F
1=
0<
0;
12
19
06
03
0I
1H
0=
09
16
13
#1840000
0!
00
#1850000
1!
10
1R!
1<
1;
02
1=
#1860000
0!
00
#1870000
1!
10
1Q!
0R!
0G
0F
0=
0<
0;
12
1I
0H
1G
1F
1=
19
06
03
0I
1H
09
16
13
#1880000
0!
00
#1890000
1!
10
1R!
1<
1;
02
0G
0F
0=
1I
0H
19
06
03
#1900000
0!
00
#1910000
1!
10
0P!
0Q!
1M!
0N!
0O!
0R!
0I
1H
1G
1F
1=
0?
09
08
16
15
13
0<
0;
12
1K
1?
19
06
03
0H
0=
0K
#1920000
0!
00
#1930000
1!
10
1R!
1<
1;
02
1=
#1940000
0!
00
#1950000
1!
10
1Q!
0R!
0G
0F
0=
0<
0;
12
1H
1G
1F
1=
0H
#1960000
0!
00
#1970000
1!
10
1R!
1<
1;
02
0G
0F
0=
1H
#1980000
0!
00
#1990000
1!
10
1P!
0Q!
0R!
1I
0H
1G
1F
1=
0<
0;
12
13
0I
1H
0=
03
#2000000
0!
00
#2010000
1!
10
1R!
1<
1;
02
1=
#2020000
0!
00
#2030000
1!
10
1Q!
0R!
0G
0F
0=
0<
0;
12
1I
0H
1G
1F
1=
13
0I
1H
03
#2040000
0!
00
#2050000
1!
10
1R!
1<
1;
02
0G
0F
0=
1I
0H
13
#2060000
0!
00
#2070000
1!
10
0P!
0Q!
1O!
0R!
0I
1H
1G
1F
1=
05
03
0<
0;
12
13
0H
0=
#2080000
0!
00
#2090000
1!
10
1R!
1<
1;
02
1=
#2100000
0!
00
#2110000
1!
10
1Q!
0R!
0G
0F
0=
0<
0;
12
1H
1G
1F
1=
0H
#2120000
0!
00
#2130000
1!
10
1R!
1<
1;
02
0G
0F
0=
1H
#2140000
0!
00
#2150000
1!
10
1P!
0Q!
0R!
1I
0H
1G
1F
1=
0<
0;
12
16
03
0I
1H
0=
06
13
#2160000
0!
00
#2170000
1!
10
1R!
1<
1;
02
1=
#2180000
0!
00
#2190000
1!
10
1Q!
0R!
0G
0F
0=
0<
0;
12
1I
0H
1G
1F
1=
16
03
0I
1H
06
13
#2200000
0!
00
#2210000
1!
10
1R!
1<
1;
02
0G
0F
0=
1I
0H
16
03
#2220000
0!
00
#2230000
1!
10
0P!
0Q!
1N!
0O!
0R!
0I
1H
1G
1F
1=
18
06
15
13
0<
0;
12
0?
08
16
03
0H
0=
1K
1?
0K
#2240000
0!
00
#2250000
1!
10
1R!
1<
1;
02
1=
#2260000
0!
00
#2270000
1!
10
1Q!
0R!
0G
0F
0=
0<
0;
12
1H
1G
1F
1=
0H
#2280000
0!
00
#2290000
1!
10
1R!
1<
1;
02
0G
0F
0=
1H
#2300000
0!
00
#2310000
1!
10
1P!
0Q!
0R!
1I
0H
1G
1F
1=
0<
0;
12
13
0I
1H
0=
03
#2320000
0!
00
#2330000
1!
10
1R!
1<
1;
02
1=
#2340000
0!
00
#2350000
1!
10
1Q!
0R!
0G
0F
0=
0<
0;
12
1I
0H
1G
1F
1=
13
0I
1H
03
#2360000
0!
00
#2370000
1!
10
1R!
1<
1;
02
0G
0F
0=
1I
0H
13
#2380000
0!
00
#2390000
1!
10
0P!
0Q!
1O!
0R!
0I
1H
1G
1F
1=
05
03
0<
0;
12
18
13
0H
0=
0?
1K
#2400000
0!
00
#2410000
1!
10
1R!
1<
1;
02
1=
#2420000
0!
00
#2430000
1!
10
1Q!
0R!
0G
0F
0=
0<
0;
12
1H
1G
1F
1=
0H
#2440000
0!
00
#2450000
1!
10
1R!
1<
1;
02
0G
0F
0=
1H
#2460000
0!
00
#2470000
1!
10
1P!
0Q!
0R!
1I
0H
1G
1F
1=
0<
0;
12
1L
0@
09
06
03
0I
1H
0=
0L
1@
19
16
13
#2480000
0!
00
#2490000
1!
10
1R!
1<
1;
02
1=
#2500000
0!
00
#2510000
1!
10
1Q!
0R!
0G
0F
0=
0<
0;
12
1I
0H
1G
1F
1=
1L
0@
09
06
03
0I
1H
0L
1@
19
16
13
#2520000
0!
00
#2530000
1!
10
1R!
1<
1;
02
0G
0F
0=
1I
0H
1L
0@
09
06
03
#2540000
0!
00
#2550000
1!
10
1K!
0P!
0Q!
0L!
0M!
0N!
0O!
0R!
0M
0L
1E
0I
1H
1:
1G
1F
1=
0K
1@
1?
19
08
16
15
13
0<
0;
12
1A
1"!
1M
1L
0@
09
06
03
0H
0=
0A
#2560000
0!
00
#2570000
1!
10
1R!
0"!
1<
1;
02
1=
#2580000
0!
00
#2590000
1!
10
1Q!
0R!
0G
0F
0=
0<
0;
12
1H
1G
1F
1=
0H
#2600000
0!
00
#2610000
1!
10
1R!
1<
1;
02
0G
0F
0=
1H
#2620000
0!
00
#2630000
1!
10
1P!
0Q!
0R!
1I
0H
0:
1G
1F
1=
1"!
0<
0;
12
13
0"!
0I
1H
0=
03
#2640000
0!
00
#2650000
1!
10
1R!
1<
1;
02
1=
#2660000
0!
00
#2670000
1!
10
1Q!
0R!
0G
0F
0=
0<
0;
12
1I
0H
1G
1F
1=
13
0I
1H
03
#2680000
0!
00
#2690000
1!
10
1R!
1<
1;
02
0G
0F
0=
1I
0H
13
#2700000
0!
00
#2710000
1!
10
0P!
0Q!
1O!
0R!
0I
1H
1G
1F
1=
05
03
0<
0;
12
13
0H
0=
#2720000
0!
00
#2730000
1!
10
1R!
1<
1;
02
1=
#2740000
0!
00
#2750000
1!
10
1Q!
0R!
0G
0F
0=
0<
0;
12
1H
1G
1F
1=
0H
#2760000
0!
00
#2770000
1!
10
1R!
1<
1;
02
0G
0F
0=
1H
#2780000
0!
00
#2790000
1!
10
1P!
0Q!
0R!
1I
0H
1G
1F
1=
0<
0;
12
16
03
0I
1H
0=
06
13
#2800000
0!
00
#2810000
1!
10
1R!
1<
1;
02
1=
#2820000
0!
00
#2830000
1!
10
1Q!
0R!
0G
0F
0=
0<
0;
12
1I
0H
1G
1F
1=
16
03
0I
1H
06
13
#2840000
0!
00
#2850000
1!
10
1R!
1<
1;
02
0G
0F
0=
1I
0H
16
03
#2860000
0!
00
#2870000
1!
10
0P!
0Q!
1N!
0O!
0R!
0I
1H
1G
1F
1=
18
06
15
13
0<
0;
12
08
16
03
0H
0=
#2880000
0!
00
#2890000
1!
10
1R!
1<
1;
02
1=
#2900000
0!
00
#2910000
1!
10
1Q!
0R!
0G
0F
0=
0<
0;
12
1H
1G
1F
1=
0H
#2920000
0!
00
#2930000
1!
10
1R!
1<
1;
02
0G
0F
0=
1H
#2940000
0!
00
#2950000
1!
10
1P!
0Q!
0R!
1I
0H
1G
1F
1=
0<
0;
12
13
0I
1H
0=
03
#2960000
0!
00
#2970000
1!
10
1R!
1<
1;
02
1=
#2980000
0!
00
#2990000
1!
10
1Q!
0R!
0G
0F
0=
0<
0;
12
1I
0H
1G
1F
1=
13
0I
1H
03
#3000000
0!
00
#3010000
1!
10
1R!
1<
1;
02
0G
0F
0=
1I
0H
13
#3020000
0!
00
#3030000
1!
10
0P!
0Q!
1O!
0R!
0I
1H
1G
1F
1=
05
03
0<
0;
12
18
13
0H
0=
#3040000
0!
00
#3050000
1!
10
1R!
1<
1;
02
1=
#3060000
0!
00
#3070000
1!
10
1Q!
0R!
0G
0F
0=
0<
0;
12
1H
1G
1F
1=
0H
#3080000
0!
00
#3090000
1!
10
1R!
1<
1;
02
0G
0F
0=
1H
#3100000
0!
00
#3110000
1!
10
1P!
0Q!
0R!
1I
0H
1G
1F
1=
0<
0;
12
19
06
03
0I
1H
0=
09
16
13
#3120000
0!
00
#3130000
1!
10
1R!
1<
1;
02
1=
#3140000
0!
00
#3150000
1!
10
1Q!
0R!
0G
0F
0=
0<
0;
12
1I
0H
1G
1F
1=
19
06
03
0I
1H
09
16
13
#3160000
0!
00
#3170000
1!
10
1R!
1<
1;
02
0G
0F
0=
1I
0H
19
06
03
#3180000
0!
00
#3190000
1!
10
0P!
0Q!
1M!
0N!
0O!
0R!
0I
1H
1G
1F
1=
0?
09
08
16
15
13
0<
0;
12
1?
19
06
03
0H
0=
#3200000
0!
00
#3210000
1!
10
1R!
1<
1;
02
1=
#3220000
0!
00
#3230000
1!
10
1Q!
0R!
0G
0F
0=
0<
0;
12
1H
1G
1F
1=
0H
#3240000
0!
00
#3250000
1!
10
1R!
1<
1;
02
0G
0F
0=
1H
#3260000
0!
00
#3270000
1!
10
1P!
0Q!
0R!
1I
0H
1G
1F
1=
0<
0;
12
13
0I
1H
0=
03
#3280000
0!
00
#3290000
1!
10
1R!
1<
1;
02
1=
#3300000
0!
00
#3310000
1!
10
1Q!
0R!
0G
0F
0=
0<
0;
12
1I
0H
1G
1F
1=
13
0I
1H
03
#3320000
0!
00
#3330000
1!
10
1R!
1<
1;
02
0G
0F
0=
1I
0H
13
#3340000
0!
00
#3350000
1!
10
0P!
0Q!
1O!
0R!
0I
1H
1G
1F
1=
05
03
0<
0;
12
13
0H
0=
#3360000
0!
00
#3370000
1!
10
1R!
1<
1;
02
1=
#3380000
0!
00
#3390000
1!
10
1Q!
0R!
0G
0F
0=
0<
0;
12
1H
1G
1F
1=
0H
#3400000
0!
00
#3410000
1!
10
1R!
1<
1;
02
0G
0F
0=
1H
#3420000
0!
00
#3430000
1!
10
1P!
0Q!
0R!
1I
0H
1G
1F
1=
0<
0;
12
16
03
0I
1H
0=
06
13
#3440000
0!
00
#3450000
1!
10
1R!
1<
1;
02
1=
#3460000
0!
00
#3470000
1!
10
1Q!
0R!
0G
0F
0=
0<
0;
12
1I
0H
1G
1F
1=
16
03
0I
1H
06
13
#3480000
0!
00
#3490000
1!
10
1R!
1<
1;
02
0G
0F
0=
1I
0H
16
03
#3500000
0!
00
#3510000
1!
10
0P!
0Q!
1N!
0O!
0R!
0I
1H
1G
1F
1=
18
06
15
13
0<
0;
12
0?
08
16
03
0H
0=
1?
#3520000
0!
00
#3530000
1!
10
1R!
1<
1;
02
1=
#3540000
0!
00
#3550000
1!
10
1Q!
0R!
0G
0F
0=
0<
0;
12
1H
1G
1F
1=
0H
#3560000
0!
00
#3570000
1!
10
1R!
1<
1;
02
0G
0F
0=
1H
#3580000
0!
00
#3590000
1!
10
1P!
0Q!
0R!
1I
0H
1G
1F
1=
0<
0;
12
13
0I
1H
0=
03
#3600000
0!
00
#3610000
1!
10
1R!
1<
1;
02
1=
#3620000
0!
00
#3630000
1!
10
1Q!
0R!
0G
0F
0=
0<
0;
12
1I
0H
1G
1F
1=
13
0I
1H
03
#3640000
0!
00
#3650000
1!
10
1R!
1<
1;
02
0G
0F
0=
1I
0H
13
#3660000
0!
00
#3670000
1!
10
0P!
0Q!
1O!
0R!
0I
1H
1G
1F
1=
05
03
0<
0;
12
18
13
0H
0=
0?
#3680000
0!
00
#3690000
1!
10
1R!
1<
1;
02
1=
#3700000
0!
00
#3710000
1!
10
1Q!
0R!
0G
0F
0=
0<
0;
12
1H
1G
1F
1=
0H
#3720000
0!
00
#3730000
1!
10
1R!
1<
1;
02
0G
0F
0=
1H
#3740000
0!
00
#3750000
1!
10
1P!
0Q!
0R!
1I
0H
1G
1F
1=
0<
0;
12
1@
09
06
03
0I
1H
0=
0@
19
16
13
#3760000
0!
00
#3770000
1!
10
1R!
1<
1;
02
1=
#3780000
0!
00
#3790000
1!
10
1Q!
0R!
0G
0F
0=
0<
0;
12
1I
0H
1G
1F
1=
1@
09
06
03
0I
1H
0@
19
16
13
#3800000
0!
00
#3810000
1!
10
1R!
1<
1;
02
0G
0F
0=
1I
0H
1@
09
06
03
#3820000
0!
00
#3830000
1!
10
0P!
0Q!
1L!
0M!
0N!
0O!
0R!
0I
1H
1:
1G
1F
1=
0E
1K
0@
1?
19
08
16
15
13
0<
0;
12
0K
1@
09
06
03
0H
0=
#3840000
0!
00
#3850000
1!
10
1R!
1<
1;
02
1=
#3860000
0!
00
#3870000
1!
10
1Q!
0R!
0G
0F
0=
0<
0;
12
1H
1G
1F
1=
0H
#3880000
0!
00
#3890000
1!
10
1R!
1<
1;
02
0G
0F
0=
1H
#3900000
0!
00
#3910000
1!
10
1P!
0Q!
0R!
1I
0H
0:
1G
1F
1=
0<
0;
12
13
0I
1H
0=
03
#3920000
0!
00
#3930000
1!
10
1R!
1<
1;
02
1=
#3940000
0!
00
#3950000
1!
10
1Q!
0R!
0G
0F
0=
0<
0;
12
1I
0H
1G
1F
1=
13
0I
1H
03
#3960000
0!
00
#3970000
1!
10
1R!
1<
1;
02
0G
0F
0=
1I
0H
13
#3980000
0!
00
#3990000
1!
10
0P!
0Q!
1O!
0R!
0I
1H
1G
1F
1=
05
03
0<
0;
12
13
0H
0=
#4000000
0!
00
#4010000
1!
10
1R!
1<
1;
02
1=
